<?xml version="1.0" encoding="UTF-8" standalone="yes"?><svg xmlns="http://www.w3.org/2000/svg" width="171" height="180" viewBox="0 0 171 180" preserveAspectRatio="none"><!--
Source URL: holder.js/100%x180
Created with Holder.js 2.6.0.
Learn more at http://holderjs.com
(c) 2012-2015 Ivan Malopinsky - http://imsky.co
--><defs><style type="text/css"><![CDATA[#holder_153ad758654 text { fill:#AAAAAA;font-weight:bold;font-family:Arial, Helvetica, Open Sans, sans-serif, monospace;font-size:10pt } ]]></style></defs><g id="holder_153ad758654"><rect width="171" height="180" fill="#EEEEEE"/><g><text x="58.54166603088379" y="94.8">Level 5</text></g></g></svg>